^C:\USERS\ДЕНИС\DOCUMENTS\VISUAL STUDIO 2017\PROJECTS\ALGORITHMS-LAB1\ZAVD №2\STDAFX.CPP
/c /ZI /nologo /W3 /WX- /diagnostics:classic /Od /Oy- /D WIN32 /D _DEBUG /D _CONSOLE /D _UNICODE /D UNICODE /Gm /EHsc /RTC1 /MDd /GS /fp:precise /Zc:wchar_t /Zc:forScope /Zc:inline /Yc"stdafx.h" /Fp"DEBUG\ZAVD №2.PCH" /Fo"DEBUG\\" /Fd"DEBUG\VC141.PDB" /Gd /TP /analyze- C:\USERS\ДЕНИС\DOCUMENTS\VISUAL STUDIO 2017\PROJECTS\ALGORITHMS-LAB1\ZAVD №2\STDAFX.CPP
^C:\USERS\ДЕНИС\DOCUMENTS\VISUAL STUDIO 2017\PROJECTS\ALGORITHMS-LAB1\ZAVD №2\ZAVD №2.CPP
/c /ZI /nologo /W3 /WX- /diagnostics:classic /Od /Oy- /D WIN32 /D _DEBUG /D _CONSOLE /D _UNICODE /D UNICODE /Gm /EHsc /RTC1 /MDd /GS /fp:precise /Zc:wchar_t /Zc:forScope /Zc:inline /Yu"stdafx.h" /Fp"DEBUG\ZAVD №2.PCH" /Fo"DEBUG\\" /Fd"DEBUG\VC141.PDB" /Gd /TP /analyze- C:\USERS\ДЕНИС\DOCUMENTS\VISUAL STUDIO 2017\PROJECTS\ALGORITHMS-LAB1\ZAVD №2\ZAVD №2.CPP
