^C:\USERS\ДЕНИС\DOCUMENTS\VISUAL STUDIO 2017\PROJECTS\ALGORITHMS-LAB5\RANDOM\STDAFX.CPP
C:\USERS\Денис\DOCUMENTS\VISUAL STUDIO 2017\PROJECTS\ALGORITHMS-LAB5\RANDOM\DEBUG\RANDOM.PCH
C:\USERS\Денис\DOCUMENTS\VISUAL STUDIO 2017\PROJECTS\ALGORITHMS-LAB5\RANDOM\DEBUG\VC141.PDB
C:\USERS\Денис\DOCUMENTS\VISUAL STUDIO 2017\PROJECTS\ALGORITHMS-LAB5\RANDOM\DEBUG\VC141.IDB
C:\USERS\Денис\DOCUMENTS\VISUAL STUDIO 2017\PROJECTS\ALGORITHMS-LAB5\RANDOM\DEBUG\STDAFX.OBJ
^C:\USERS\ДЕНИС\DOCUMENTS\VISUAL STUDIO 2017\PROJECTS\ALGORITHMS-LAB5\RANDOM\RANDOM.CPP
C:\USERS\Денис\DOCUMENTS\VISUAL STUDIO 2017\PROJECTS\ALGORITHMS-LAB5\RANDOM\DEBUG\VC141.PDB
C:\USERS\Денис\DOCUMENTS\VISUAL STUDIO 2017\PROJECTS\ALGORITHMS-LAB5\RANDOM\DEBUG\VC141.IDB
C:\USERS\Денис\DOCUMENTS\VISUAL STUDIO 2017\PROJECTS\ALGORITHMS-LAB5\RANDOM\DEBUG\RANDOM.OBJ
